Ch 12-13 r4ds hw
…
fill takes the dataset and a column and does the rest to get rid of missing values. complete takes similar arguments, but makes all missing value combinations explicit. spread takes the dataset, a column whose values should become column names, and the column whose values should be spread below the new columns.

What does the direction argument to fill() do? It tells the function whether to pull values down or up into NA cells. Default is down.

12.6.1 Exercises

who %>%
  gather(code, value, new_sp_m014:newrel_f65, na.rm = TRUE) %>% 
  mutate(code = stringr::str_replace(code, "newrel", "new_rel")) %>%
  separate(code, c("new", "var", "sexage")) %>% 
  select(-new, -iso2, -iso3) %>% 
  separate(sexage, c("sex", "age"), sep = 1)

## # A tibble: 76,046 x 6
##        country  year   var   sex   age value
##  *       <chr> <int> <chr> <chr> <chr> <int>
##  1 Afghanistan  1997    sp     m   014     0
##  2 Afghanistan  1998    sp     m   014    30
##  3 Afghanistan  1999    sp     m   014     8
##  4 Afghanistan  2000    sp     m   014    52
##  5 Afghanistan  2001    sp     m   014   129
##  6 Afghanistan  2002    sp     m   014    90
##  7 Afghanistan  2003    sp     m   014   127
##  8 Afghanistan  2004    sp     m   014   139
##  9 Afghanistan  2005    sp     m   014   151
## 10 Afghanistan  2006    sp     m   014   193
## # ... with 76,036 more rows

In this case study I set na.rm = TRUE just to make it easier to check that we had the correct values. Is this reasonable? Think about how missing values are represented in this dataset. Are there implicit missing values? Whats the difference between an NA and zero?

Leaving the missing values in gives a clearer picture of what is and is not present. NA shows that the measurements werent taken. Zero would imply that the statistic was measured and there were no cases. It doesnt look like there are any implicit missing values until we gather with na.rm = TRUE.

What happens if you neglect the mutate() step? (mutate(key = stringr::str_replace(key, "newrel", "new_rel"))) newrel gets separated into the new column and then omitted from the data with the select function.

I claimed that iso2 and iso3 were redundant with country. Confirm this claim. Counting the number of occurences of each name yields the same results:

    count(who, iso3)

## # A tibble: 219 x 2
##     iso3     n
##    <chr> <int>
##  1   ABW    34
##  2   AFG    34
##  3   AGO    34
##  4   AIA    34
##  5   ALB    34
##  6   AND    34
##  7   ANT    30
##  8   ARE    34
##  9   ARG    34
## 10   ARM    34
## # ... with 209 more rows

    count(who, iso2)

## # A tibble: 219 x 2
##     iso2     n
##    <chr> <int>
##  1    AD    34
##  2    AE    34
##  3    AF    34
##  4    AG    34
##  5    AI    34
##  6    AL    34
##  7    AM    34
##  8    AN    30
##  9    AO    34
## 10    AR    34
## # ... with 209 more rows

    count(who, country)

## # A tibble: 219 x 2
##                country     n
##                  <chr> <int>
##  1         Afghanistan    34
##  2             Albania    34
##  3             Algeria    34
##  4      American Samoa    34
##  5             Andorra    34
##  6              Angola    34
##  7            Anguilla    34
##  8 Antigua and Barbuda    34
##  9           Argentina    34
## 10             Armenia    34
## # ... with 209 more rows
…
You might want to use the `size` or `colour` of the points to display
the average delay for each airport.**

Add the location of the origin and destination (i.e.the lat and lon) to flights.

flights %>% 
left_join(airports, by = c("dest" = "faa"), suffix = c(".d",".o")) %>%
left_join(airports, by = c("origin" = "faa"), suffix = c(".d", ".o"))

## # A tibble: 336,776 x 33
##     year month   day dep_time sched_dep_time dep_delay arr_time
##    <int> <int> <int>    <int>          <int>     <dbl>    <int>
##  1  2013     1     1      517            515         2      830
##  2  2013     1     1      533            529         4      850
##  3  2013     1     1      542            540         2      923
##  4  2013     1     1      544            545        -1     1004
##  5  2013     1     1      554            600        -6      812
##  6  2013     1     1      554            558        -4      740
##  7  2013     1     1      555            600        -5      913
##  8  2013     1     1      557            600        -3      709
##  9  2013     1     1      557            600        -3      838
## 10  2013     1     1      558            600        -2      753
## # ... with 336,766 more rows, and 26 more variables: sched_arr_time <int>,
## #   arr_delay <dbl>, carrier <chr>, flight <int>, tailnum <chr>,
## #   origin <chr>, dest <chr>, air_time <dbl>, distance <dbl>, hour <dbl>,
## #   minute <dbl>, time_hour <dttm>, name.d <chr>, lat.d <dbl>,
## #   lon.d <dbl>, alt.d <int>, tz.d <dbl>, dst.d <chr>, tzone.d <chr>,
## #   name.o <chr>, lat.o <dbl>, lon.o <dbl>, alt.o <int>, tz.o <dbl>,
## #   dst.o <chr>, tzone.o <chr>
…
AA and MQ seem to omit tail numbers.

Filter flights to only show flights with planes that have flown at least 100 flights.

century <- flights %>%
  count(tailnum) %>% 
  filter(n >= 100)
century

## # A tibble: 1,218 x 2
##    tailnum     n
##      <chr> <int>
##  1  N0EGMQ   371
##  2  N10156   153
##  3  N10575   289
##  4  N11106   129
##  5  N11107   148
##  6  N11109   148
##  7  N11113   138
##  8  N11119   148
##  9  N11121   154
## 10  N11127   124
## # ... with 1,208 more rows

Combine fueleconomy::vehicles and fueleconomy::common to find only the records for the most common models.

semi_join(vehicles, common)

## Joining, by = c("make", "model")

## # A tibble: 14,531 x 12
##       id  make   model  year           class           trans
##    <int> <chr>   <chr> <int>           <chr>           <chr>
##  1  1833 Acura Integra  1986 Subcompact Cars Automatic 4-spd
##  2  1834 Acura Integra  1986 Subcompact Cars    Manual 5-spd
##  3  3037 Acura Integra  1987 Subcompact Cars Automatic 4-spd
##  4  3038 Acura Integra  1987 Subcompact Cars    Manual 5-spd
##  5  4183 Acura Integra  1988 Subcompact Cars Automatic 4-spd
##  6  4184 Acura Integra  1988 Subcompact Cars    Manual 5-spd
##  7  5303 Acura Integra  1989 Subcompact Cars Automatic 4-spd
##  8  5304 Acura Integra  1989 Subcompact Cars    Manual 5-spd
##  9  6442 Acura Integra  1990 Subcompact Cars Automatic 4-spd
## 10  6443 Acura Integra  1990 Subcompact Cars    Manual 5-spd
## # ... with 14,521 more rows, and 6 more variables: drive <chr>, cyl <int>,
## #   displ <dbl>, fuel <chr>, hwy <int>, cty <int>

Find the 48 hours (over the course of the whole year) that have the worst delays. Cross-reference it with the weather data. Can you see any patterns?

#find delayedest 48 hrs
flights4 <- group_by(flights, year, month, day, origin) %>%
  summarize(avg_delay = mean(arr_delay, na.rm=T)) %>%
  mutate(neigh_sum = mean(avg_delay + lag(avg_delay), na.rm=T)) %>% #I would weight this combination of day averages by number of flights if I was a good person.
  arrange(desc(neigh_sum))

flights4

## # A tibble: 1,095 x 6
## # Groups:   year, month, day [365]
##     year month   day origin avg_delay neigh_sum
##    <int> <int> <int>  <chr>     <dbl>     <dbl>
##  1  2013     3     8    EWR 104.98120  161.9128
##  2  2013     3     8    JFK  61.20724  161.9128
##  3  2013     3     8    LGA  96.42982  161.9128
##  4  2013     7    22    EWR  55.25152  131.6693
##  5  2013     7    22    JFK  76.20132  131.6693
##  6  2013     7    22    LGA  55.68444  131.6693
##  7  2013     6    13    EWR  50.74121  128.7567
##  8  2013     6    13    JFK  63.71242  128.7567
##  9  2013     6    13    LGA  79.34733  128.7567
## 10  2013     7    10    EWR  56.88667  125.3156
## # ... with 1,085 more rows

#group this bad boy into 48 hr periods
weather4 <- group_by(weather, year, month, day, origin) %>%
  summarize(avg_precip = mean(precip, na.rm=T),
            avg_visib = mean(visib, na.rm=T),
            avg_wind_speed = mean(wind_speed, na.rm=T)) %>%
  mutate(precip48 = mean(avg_precip + lag(avg_precip), na.rm=T),
         visib48 = mean(avg_visib + lag(avg_visib), na.rm=T),
         wind_speed48 = mean(avg_wind_speed + lag(avg_wind_speed), na.rm=T)) %>%
  arrange(visib48, desc(wind_speed48), desc(precip48)) 

weather4

## # A tibble: 1,092 x 10
## # Groups:   year, month, day [364]
##     year month   day origin   avg_precip avg_visib avg_wind_speed
##    <dbl> <dbl> <int>  <chr>        <dbl>     <dbl>          <dbl>
##  1  2013     1    13    EWR 0.0000000000  2.207917       2.013865
##  2  2013     1    13    JFK 0.0000000000  2.114583       5.945697
##  3  2013     1    13    LGA 0.0000000000  2.572500       5.658002
##  4  2013     1    30    EWR 0.0008333333  3.859167       4.699018
##  5  2013     1    30    JFK 0.0012500000  1.608750      12.658580
##  6  2013     1    30    LGA 0.0012500000  3.750000       8.487002
##  7  2013    10     6    EWR 0.0000000000  4.104167       6.569036
##  8  2013    10     6    JFK 0.0000000000  2.510417       9.445986
##  9  2013    10     6    LGA 0.0004166667  4.291667       8.726748
## 10  2013     1    12    EWR 0.0112500000  3.895833       5.705951
## # ... with 1,082 more rows, and 3 more variables: precip48 <dbl>,
## #   visib48 <dbl>, wind_speed48 <dbl>
…
You might expect that theres an implicit relationship between plane and airline, because each plane is flown by a single airline. Confirm or reject this hypothesis using the tools youve learned above.

Planes seem to be shared by airlines rather often.

multi_owned <- flights %>%
  group_by(tailnum) %>%
  summarise(owners = n_distinct(carrier)) %>% 
  filter(owners >1)

filter(flights, tailnum %in% multi_owned[["tailnum"]]) %>%
  group_by(tailnum, carrier, dest, month) %>%
  summarize(n()) %>%
  left_join(airlines, by = "carrier", )

## # A tibble: 799 x 6
## # Groups:   tailnum, carrier, dest [?]
##    tailnum carrier  dest month `n()`                     name
##      <chr>   <chr> <chr> <int> <int>                    <chr>
##  1  N146PQ      9E   ATL     1     2        Endeavor Air Inc.
##  2  N146PQ      9E   ATL     2     6        Endeavor Air Inc.
##  3  N146PQ      EV   ATL     4     1 ExpressJet Airlines Inc.
##  4  N146PQ      EV   ATL     5     2 ExpressJet Airlines Inc.
##  5  N146PQ      EV   ATL     6     1 ExpressJet Airlines Inc.
##  6  N146PQ      EV   ATL     7     2 ExpressJet Airlines Inc.
##  7  N146PQ      EV   ATL     8     3 ExpressJet Airlines Inc.
##  8  N146PQ      EV   ATL    10     2 ExpressJet Airlines Inc.
##  9  N146PQ      EV   DTW     6     9 ExpressJet Airlines Inc.
## 10  N146PQ      EV   DTW     7     3 ExpressJet Airlines Inc.
## # ... with 789 more rows
…
