R4DS Ch 16 Exercises
…
Compare air_time with the duration between the departure and arrival. Explain your findings. (Hint: consider the location of the airport.)

flights_dt %>% 
mutate(air_time_2 = (arr_time - dep_time)) %>% print()

## # A tibble: 328,063 x 10
##    origin  dest dep_delay arr_delay            dep_time
##     <chr> <chr>     <dbl>     <dbl>              <dttm>
##  1    EWR   IAH         2        11 2013-01-01 05:17:00
##  2    LGA   IAH         4        20 2013-01-01 05:33:00
##  3    JFK   MIA         2        33 2013-01-01 05:42:00
##  4    JFK   BQN        -1       -18 2013-01-01 05:44:00
##  5    LGA   ATL        -6       -25 2013-01-01 05:54:00
##  6    EWR   ORD        -4        12 2013-01-01 05:54:00
##  7    EWR   FLL        -5        19 2013-01-01 05:55:00
##  8    LGA   IAD        -3       -14 2013-01-01 05:57:00
##  9    JFK   MCO        -3        -8 2013-01-01 05:57:00
## 10    LGA   ORD        -2         8 2013-01-01 05:58:00
## # ... with 328,053 more rows, and 5 more variables: sched_dep_time <dttm>,
## #   arr_time <dttm>, sched_arr_time <dttm>, air_time <dbl>,
## #   air_time_2 <time>
…
